{
	"id": "f5369359-403c-4629-8645-a241f39a9ae6",
	"name": "case-study-3",
	"values": [
		{
			"key": "host",
			"value": " http://127.0.0.1:8000      ",
			"enabled": true
		},
		{
			"key": "token",
			"value": "eyJ0eXAiOiJKV1QiLCJhbGciOiJSUzI1NiJ9.eyJpYXQiOjE1ODk4NTI2MjAsImV4cCI6MTU4OTg1NjIyMCwicm9sZXMiOlsiUk9MRV9VU0VSIl0sInVzZXJuYW1lIjoiZXJ0aXoifQ.HWXw2tQp1G8eIl7N1dULHyXi0yIhptD9pU3lBuYxzTN43fNSaHKzSX7KC1-CH5J88jx0NnwTVQ1GAIfs8SSeKw",
			"enabled": true
		}
	],
	"_postman_variable_scope": "environment",
	"_postman_exported_at": "2020-05-19T01:58:06.899Z",
	"_postman_exported_using": "Postman/7.22.0-canary05"
}